Place,Name,Division,Sex,Equipment,BodyweightKg,Best3SquatKg,Best3BenchKg,Best3DeadliftKg,TotalKg,Age,Bench1Kg,Bench2Kg,Bench3Kg,Squat4Kg
1,Maryana Naumova,Open,F,Multi-ply,,,149.69,,149.69,15,133.81,-145.15,149.69,
7,Alex Podshiabiakin,Heavy,M,Multi-ply,153.59,,263.08,,263.08,50,226.8,249.48,263.08,
1,Gene Nechaev,Light,M,Multi-ply,88.45,,335.66,,335.66,37,317.51,-335.66,335.66,
2,Tim Hensley,Light,M,Multi-ply,89.81,,317.51,,317.51,34,317.51,-331.12,-331.12,
6,Eric DeCaires,Heavy,M,Multi-ply,98.88,,317.51,,317.51,28,317.51,-335.66,-335.66,
4,Tom Waldrep,Heavy,M,Multi-ply,99.34,,317.51,,317.51,51,317.51,-362.87,-362.87,
5,Greg Powell,Heavy,M,Multi-ply,99.79,,317.51,,317.51,49,317.51,-362.87,-362.87,
1,Matt Houser,Heavy,M,Multi-ply,146.06,,362.87,,362.87,31,362.87,-426.38,-426.38,
DQ,Jimmy Kolb,Heavy,M,Multi-ply,107.05,,,,,24,-362.87,-453.59,-453.59,
DQ,Mike Womack,Heavy,M,Multi-ply,136.08,,,,,33,-362.87,-408.23,-408.23,
1,Brian Carroll,Heavy,M,Multi-ply,109.86,483.08,347,353.8,1183.88,,,,,
2,Matt Minuth,Heavy,M,Multi-ply,106.59,453.59,385.55,333.39,1172.54,,,,,
3,Jake Anderson,Heavy,M,Multi-ply,136.21,467.2,349.27,340.19,1156.66,,,,,
4,Allan Mehan,Heavy,M,Multi-ply,135.44,480.81,340.19,333.39,1154.39,,,,,
5,Marshall Johnson,Heavy,M,Multi-ply,136.62,480.81,340.19,317.51,1138.52,,,,,
6,Derek Wade,Heavy,M,Multi-ply,135.85,455.86,333.39,344.73,1133.98,,,,,
7,Justin Graalfs,Heavy,M,Multi-ply,136.49,476.27,308.44,333.39,1118.11,,,,,
8,Chuck Vogelpohl,Heavy,M,Multi-ply,109.59,462.66,240.4,342.46,1045.53,,,,,
9,Jonathan Byrd,Heavy,M,Multi-ply,123.74,430.91,331.12,310.71,1072.75,,,,,
10,Jayson McNett,Heavy,M,Multi-ply,151.23,483.08,356.07,299.37,1138.52,,,,,
11,Jeff Frank,Heavy,M,Multi-ply,176.95,501.22,349.27,306.17,1156.66,,,,,
12,Jesse Luczyk,Heavy,M,Multi-ply,136.44,455.86,328.85,303.91,1088.62,,,,,
13,Pat Helber,Heavy,M,Multi-ply,112.54,403.7,292.57,312.98,1009.24,,,,,
14,Tony Chirico,Heavy,M,Multi-ply,122.88,435.45,285.76,299.37,1020.58,,,,,
15,JoeDon Breda,Heavy,M,Multi-ply,117.93,362.87,322.05,278.96,963.88,,,,,
16,Brian Billings,Heavy,M,Multi-ply,124.74,412.77,208.65,353.8,975.22,,,,,
17,Chris Bartl,Heavy,M,Multi-ply,107.18,347,281.23,310.71,938.94,,,,,
18,Joey Grizz Rogers,Heavy,M,Multi-ply,122.33,381.02,294.84,288.03,963.88,,,,,
19,Marcus Wild,Heavy,M,Multi-ply,118.66,347,285.76,310.71,943.47,,,,,
20,Bill Fritz,Heavy,M,Multi-ply,137.08,410.5,274.42,290.3,975.22,,,,,
21,Joseph Cox,Heavy,M,Multi-ply,133.81,371.95,278.96,292.57,943.47,,,,,
DQ,Tory Pelzer,Heavy,M,Multi-ply,123.79,462.66,,,,,,,,
DQ,Corey Miceli,Heavy,M,Multi-ply,138.35,444.52,,,,,,,,
DQ,Chris Janek,Heavy,M,Multi-ply,136.26,501.22,,,,,,,,
1,Aaron Palko,Heavy,M,Wraps,98.34,335.66,210.92,306.17,852.75,,,,,
2,Bob Merkh,Heavy,M,Wraps,99.88,331.12,219.99,292.57,843.68,,,,,
3,Tanner Hysell,Heavy,M,Wraps,124.24,344.73,192.78,344.73,882.24,,,,,
4,Alastair MacNicol,Heavy,M,Wraps,99.61,290.3,181.44,337.93,809.66,,,,,
5,Bryan Doberdruk,Heavy,M,Wraps,98.02,283.5,188.24,328.85,800.59,,,,,
6,Edward Zende,Heavy,M,Wraps,109.59,337.93,201.85,288.03,827.81,,,,,
7,Kyle Sheridan,Heavy,M,Wraps,99.88,301.64,170.1,319.78,791.52,,,,,
8,Courtney Church,Heavy,M,Wraps,109.27,317.51,185.97,312.98,816.47,,,,,
9,Dale Thorpe,Heavy,M,Wraps,122.11,331.12,204.12,294.84,830.07,,,,,
10,John Hallman,Heavy,M,Wraps,109.95,319.78,185.97,292.57,798.32,,,,,
11,Larry Pope,Heavy,M,Wraps,109.27,317.51,185.97,290.3,793.79,,,,,
12,Anthony Echols,Heavy,M,Wraps,121.79,294.84,217.72,290.3,802.86,,,,,
13,Denis Astakhov,Heavy,M,Wraps,109.77,315.25,158.76,310.71,784.71,,,,,
14,Jeffrey Cobb,Heavy,M,Wraps,123.33,299.37,197.31,290.3,786.98,,,,,
15,Chris Carson,Heavy,M,Wraps,108.82,267.62,222.26,272.16,762.04,,,,,
16,Aaron White,Heavy,M,Wraps,104.78,288.03,185.97,276.69,750.7,,,,,
17,Michael Moore,Heavy,M,Wraps,122.15,272.16,195.04,294.84,762.04,,,,,
18,Jason Kowalewski,Heavy,M,Wraps,107.32,249.48,192.78,260.82,703.07,,,,,
19,Christopher Crisman,Heavy,M,Wraps,181.44,72.57,244.94,72.57,390.09,,,,,
DQ,Shane Poole,Heavy,M,Wraps,109.04,301.64,190.51,,,,,,,
DQ,Dmitry Bubnov,Heavy,M,Wraps,127.19,,233.6,,,,,,,
1,Irina Petrovich,Open,F,Wraps,64.5,190.51,122.47,201.85,514.83,,,,,
2,Jeanine Whittaker,Open,F,Wraps,82.55,249.48,127.01,229.06,605.55,,,,,
3,Ellen Stein,Open,F,Wraps,59.51,172.37,81.65,185.97,439.98,,,,,
4,Kayla Morelan,Open,F,Wraps,59.92,170.1,79.38,158.76,408.23,,,,,
5,Steph Tomlinson,Open,F,Wraps,64.5,156.49,97.52,179.17,433.18,,,,,
6,Macy Armstrong,Open,F,Wraps,88.18,199.58,117.93,219.99,537.51,,,,,
7,Christine Brass,Open,F,Wraps,59.87,163.29,77.11,151.95,392.36,,,,,
8,Chelsey Lampros,Open,F,Wraps,59.92,156.49,83.91,147.42,387.82,,,,,
9,Opara Nkechi,Open,F,Wraps,54.02,140.61,61.23,145.15,347,,,,,
10,Sheri Whetham,Open,F,Wraps,73.53,158.76,90.72,190.51,439.98,,,,,
11,Kelsey Becker,Open,F,Wraps,67.22,149.69,83.91,174.63,408.23,,,,,
12,Amy Berardinelli,Open,F,Wraps,67.86,147.42,88.45,172.37,408.23,,,,,
13,Christy Lexow,Open,F,Wraps,66.41,149.69,74.84,167.83,392.36,,,,,
14,Modupe Tawa Adegoke,Open,F,Wraps,70.72,149.69,81.65,165.56,396.89,,,,,
15,Priyanka C Ghose,Open,F,Wraps,55.57,117.93,61.23,145.15,324.32,,,,,
16,Sara Berlin,Open,F,Wraps,125.24,219.99,102.06,199.58,521.63,,,,,
17,Ellen Tomski,Open,F,Wraps,55.34,115.67,58.97,142.88,317.51,,,,,
18,Kaitlyn Harlan,Open,F,Wraps,105.64,185.97,117.93,197.31,501.22,,,,,
19,Melanie Strapp,Open,F,Wraps,81.42,145.15,92.99,174.63,412.77,,,,,
20,Sarah Farrar,Open,F,Wraps,59.83,113.4,58.97,142.88,315.25,,,,,
DQ,Tatiana Katiushcheva,Open,F,Wraps,58.2,,99.79,,,,,,,
1,Rheta West,Open,F,Multi-ply,74.75,278.96,183.7,219.99,682.66,,,,,
2,Beth Thomas,Open,F,Multi-ply,55.7,208.65,117.93,167.83,494.42,,,,,
3,Nina Kondrashyova,Open,F,Multi-ply,72.03,249.48,151.95,192.78,594.21,,,,,
4,Tara Green,Open,F,Multi-ply,81.42,290.3,165.56,192.78,648.64,,,,,
5,Allison Lockhart,Open,F,Multi-ply,81.33,242.67,151.95,215.46,610.08,,,,,
1,Brandon Smitley,Light,M,Wraps,59.83,242.67,145.15,229.06,616.89,,,,,256.28
2,Jonathan Harder,Light,M,Wraps,81.37,290.3,208.65,288.03,786.98,,,,,
3,Da'Mon Mayers,Light,M,Wraps,89.95,303.91,176.9,299.37,780.18,,,,,
4,Justin Merrigan,Light,M,Wraps,81.74,285.76,181.44,244.94,712.14,,,,,
5,Brandon Christ,Light,M,Wraps,77.66,254.01,154.22,265.35,673.58,,,,,
6,Nick Bonavito,Light,M,Wraps,89.04,288.03,183.7,242.67,714.41,,,,,
7,Nick Hardy,Light,M,Wraps,67.72,188.24,136.08,242.67,566.99,,,,,
8,Rex Voils,Light,M,Wraps,74.93,235.87,145.15,235.87,616.89,,,,,
9,Walter Carrillo,Light,M,Wraps,59.51,181.44,111.13,206.38,498.95,,,,,
10,Dylan Boyer,Light,M,Wraps,67.45,204.12,115.67,242.67,562.45,,,,,
11,Chris Lindsay,Light,M,Wraps,53.61,172.37,79.38,190.51,442.25,,,,,
12,Jed Lee,Light,M,Wraps,66.13,195.04,122.47,229.06,546.58,,,,,
13,Austin Sauget,Light,M,Wraps,89.81,294.84,145.15,231.33,671.32,,,,,
14,Filipe Gusmao,Light,M,Wraps,83.55,244.94,151.95,226.8,623.69,,,,,
DQ,Jake Copani,Light,M,Wraps,62.96,219.99,,,,,,,,
DQ,Brandon Crabill,Light,M,Wraps,88.54,251.74,197.31,,,,,,,
1,Matt Minuth,Light,M,Multi-ply,98.79,437.72,394.63,324.32,1156.66,,,,,
2,James Burdette,Light,M,Multi-ply,98.61,410.5,319.78,294.84,1025.12,,,,,
3,Wes McCormick,Light,M,Multi-ply,74.48,362.87,231.33,258.55,852.75,,,,,
4,Marc Tejero,Light,M,Multi-ply,66.77,317.51,201.85,256.28,775.64,,,,,
5,Joe Buck,Light,M,Multi-ply,99.38,401.43,322.05,265.35,988.83,,,,,
6,Zac Whalen,Light,M,Multi-ply,99.97,392.36,283.5,310.71,986.56,,,,,
7,JJ Thomas,Light,M,Multi-ply,99.2,351.53,299.37,324.32,975.22,,,,,
8,Zane Geeting,Light,M,Multi-ply,98.61,374.21,231.33,347,952.54,,,,,
9,Augie,Light,M,Multi-ply,99.99,374.21,265.35,306.17,945.74,,,,,
10,Jason Murphy,Light,M,Multi-ply,74.98,312.98,235.87,235.87,784.71,,,,,
11,Chad Hammond,Light,M,Multi-ply,99.2,385.55,242.67,306.17,934.4,,,,,
12,Clint Moore,Light,M,Multi-ply,95.03,342.46,260.82,306.17,909.45,,,,,
13,Jonathan Ross,Light,M,Multi-ply,99.74,344.73,258.55,306.17,909.45,,,,,
DQ,Michael Kemper,Light,M,Multi-ply,89.63,,,,,,,,,
DQ,Brian Cain,Light,M,Multi-ply,89.86,,,,,,,,,
DQ,Derek Wilcox,Light,M,Multi-ply,86.23,419.57,,,,,,,,
