Name,Sex,BodyweightKg,WeightClassKg,Squat1Kg,Squat2Kg,Squat3Kg,Best3SquatKg,Bench1Kg,Bench2Kg,Bench3Kg,Best3BenchKg,Bench4Kg,Deadlift1Kg,Deadlift2Kg,Deadlift3Kg,Best3DeadliftKg,TotalKg,Place,Event,Equipment
Bindy McClymont,F,74.5,75,85,-92.5,95,95,40,45,-50,45,,100,110,-120,110,250,1,SBD,Single-ply
Heather Hope,F,90.4,90+,60,67.5,72.5,72.5,50,-55,-55,50,,80,90,100,100,222.5,1,SBD,Single-ply
Daniel Grech,M,72.9,75,95,100,115,115,70,80,-87.5,80,,85,100,110,110,305,1,SBD,Single-ply
Dale Pickering,M,87.3,90,80,90,-105,90,100,110,-120,110,,80,110,130,130,330,1,SBD,Single-ply
Annette Thomas,F,74.7,75,,,,,47.5,50,-52.5,50,,,,,,50,1,B,Single-ply
Brian McIntosh,M,69.45,75,,,,,110,115,117.5,117.5,,,,,,117.5,1,B,Single-ply
Bill Nancarrow,M,80.45,82.5,,,,,115,120,-142.5,120,,,,,,120,2,B,Single-ply
Brendan Darby,M,82.05,82.5,,,,,180,185,187.5,187.5,190,,,,,187.5,1,B,Single-ply
Anthony Young,M,130.5,125+,,,,,167.5,175,180,180,-185,,,,,180,1,B,Single-ply
